…
Which neighborhood has the most arrests?

``` r
df %>%
  group_by(neighborhood) %>% 
  count() %>% 
  arrange(-n)
```

    ## # A tibble: 95 × 2
    ##                   neighborhood     n
    ##                          <chr> <int>
    ## 1  Golden Triangle/Civic Arena 29147
    ## 2             South Side Flats 28251
    ## 3                      Carrick 18059
    ## 4                   Bloomfield 16223
    ## 5                    Shadyside 14584
    ## 6                 East Liberty 11903
    ## 7                    Knoxville 11276
    ## 8               Homewood South 11019
    ## 9             Mount Washington 11018
    ## 10             Central Oakland 10435
    ## # ... with 85 more rows

Which arrest descriptions are the most common?

``` r
df %>%
  group_by(description) %>% 
  count() %>% 
  arrange(-n)
```

    ## # A tibble: 330 × 2
    ##                       description      n
    ##                             <chr>  <int>
    ## 1                            <NA> 109346
    ## 2                 THEFT FROM AUTO  29617
    ## 3                THEFT/ALL OTHERS  28790
    ## 4        CRIMINAL MISCHIEF (AUTO)  28143
    ## 5           SIMPLE ASSAULT/INJURY  22188
    ## 6               CRIMINAL MISCHIEF  19635
    ## 7  HARRASSMENT/THREAT/ATTEMPT/PHY  16988
    ## 8          BURGLARY/FORCE ENT/RES  15171
    ## 9            MTR VEH THEFT (AUTO)  12313
    ## 10              MARIJUANA-POSSESS  11666
    ## # ... with 320 more rows
…
